Exploring the BRFSS data
…
Its have enough data to split employed for wages and self employed people, so we can use it in research.

For filtering peoples by sleep adequacy, we should use sleptim1 variable, because its the only one about sleep hours. In questionary, the question about sleep is looks the next: On average, how many hours of sleep do you get in a 24-hour period?, so we should decide ourselves how to split adequate/inadequate hours, but now lets just take a look at what the variable is.

str(brfss2013$sleptim1)

##  int [1:491775] NA 6 9 8 6 8 7 6 8 8 ...

brfss2013 %>%
  group_by(sleptim1) %>%
  summarize(count=n())

## # A tibble: 28 x 2
##    sleptim1  count
##       <int>  <int>
##  1        0      1
##  2        1    228
##  3        2   1076
##  4        3   3496
##  5        4  14261
##  6        5  33436
##  7        6 106197
##  8        7 142469
##  9        8 141102
## 10        9  23800
## #  with 18 more rows

Seems good enough to use in research. Go further.

As for alcohol consumption, the variable alcday5, Days In Past 30 Had Alcoholic Beverage, looks the most reasonable one, because other alcohol related variables have too much missing values.

str(brfss2013$alcday5)

##  int [1:491775] 201 0 220 208 210 0 201 202 101 0 ...

brfss2013 %>%
  group_by(alcday5) %>%
  summarize(count=n())

## # A tibble: 41 x 2
##    alcday5  count
##      <int>  <int>
##  1       0 236715
##  2       1      1
##  3       2      3
##  4     101  18241
##  5     102  14234
##  6     103   9684
##  7     104   4528
##  8     105   4625
##  9     106   1600
## 10     107  10153
## #  with 31 more rows
…
